Process FCSV files from Cymatogaster
…
The x coordinate from the file is what we call y in the data set, and the z coordinate is x, so rename the columns. Plus extract the point number and position from the labels.

coordsxy <-
  coords %>%
  mutate(Pos = str_extract(label, "(?<=_)\\d+"),
         PtNum = str_extract(label, "(?<=-)\\d+"),
         PtNum = as.numeric(PtNum) - 1) %>%
  rename(y = x, x = z)

coordsxy

# A tibble: 49 × 5
       y     x label                       Pos   PtNum
   <dbl> <dbl> <chr>                       <chr> <dbl>
 1 -104.  430. Cymatogaster_aggregata_30-2 30        1
 2 -139.  431. Cymatogaster_aggregata_30-3 30        2
 3 -114.  405. Cymatogaster_aggregata_30-4 30        3
 4 -131.  406. Cymatogaster_aggregata_30-5 30        4
 5 -121.  414. Cymatogaster_aggregata_30-6 30        5
 6 -122.  414. Cymatogaster_aggregata_30-7 30        6
 7 -120.  414. Cymatogaster_aggregata_30-8 30        7
 8 -101.  551. Cymatogaster_aggregata_40-2 40        1
 9 -121.  553. Cymatogaster_aggregata_40-3 40        2
10 -105.  524. Cymatogaster_aggregata_40-4 40        3
# … with 39 more rows
…
