R Notebook
…
Rows: 585 Columns: 54

── Column specification ────────────────────────────────────────────────────────
Delimiter: ","
chr (16): Species, MatchSpecies, Family, Body Shape, Habitat_Initial, Habita...
dbl (38): Indiv, Pos, SL, CBL_raw, alpha_Pos_raw, d_raw, D_Pos_raw, alpha_An...

ℹ Use `spec()` to retrieve the full column specification for this data.
ℹ Specify the column types or set `show_col_types = FALSE` to quiet this message.

fullvertmeas

# A tibble: 585 × 55
   Species          MatchGenus MatchSpecies Family Indiv   Pos    SL CBL_raw
   <chr>            <chr>      <chr>        <chr>  <dbl> <dbl> <dbl>   <dbl>
 1 Alectis_ciliaris <NA>       <NA>         <NA>       1    40   799    24.9
 2 Alectis_ciliaris <NA>       <NA>         <NA>       1    50   799    34.4
 3 Alectis_ciliaris <NA>       <NA>         <NA>       1    60   799    35.8
 4 Alectis_ciliaris <NA>       <NA>         <NA>       1    70   799    36.6
 5 Alectis_ciliaris <NA>       <NA>         <NA>       1    80   799    35.2
 6 Alectis_ciliaris <NA>       <NA>         <NA>       1    90   799    32.8
 7 Amia_calva       <NA>       <NA>         <NA>       1    30  1438    11.8
 8 Amia_calva       <NA>       <NA>         <NA>       1    40  1438    31.8
 9 Amia_calva       <NA>       <NA>         <NA>       1    50  1438    15.6
10 Amia_calva       <NA>       <NA>         <NA>       1    60  1438    32.1
# … with 575 more rows, and 47 more variables: alpha_Pos_raw <dbl>,
#   d_raw <dbl>, D_Pos_raw <dbl>, alpha_Ant_raw <dbl>, D_Ant_raw <dbl>,
#   CBL <dbl>, alpha_Pos <dbl>, d <dbl>, D_Pos <dbl>, alpha_Ant <dbl>,
#   D_Ant <dbl>, Pt1x <dbl>, Pt1y <dbl>, Pt2x <dbl>, Pt2y <dbl>, Pt3x <dbl>,
#   Pt3y <dbl>, Pt4x <dbl>, Pt4y <dbl>, Pt5x <dbl>, Pt5y <dbl>, Pt6x <dbl>,
#   Pt6y <dbl>, Pt7x <dbl>, Pt7y <dbl>, Body Shape <chr>,
#   Habitat_Initial <chr>, Habitat_Friedman <chr>, Habitat_FishBase <chr>, …
…
allspecies$Tip <- seq_len(nrow(allspecies))

Match our species to the tree

Now let’s look at just the distinct species in our data set.

ourspecies <-
  fullvertmeas %>%
  distinct(Species, .keep_all=TRUE) %>%
  separate(Species, sep='_', into=c("Genus", "Species")) %>%
  select(Genus, Species, Family, MatchGenus, MatchSpecies)
ourspecies

# A tibble: 85 × 5
   Genus         Species        Family MatchGenus MatchSpecies
   <chr>         <chr>          <chr>  <chr>      <chr>       
 1 Alectis       ciliaris       <NA>   <NA>       <NA>        
 2 Amia          calva          <NA>   <NA>       <NA>        
 3 Anoplogaster  cornuta        <NA>   <NA>       <NA>        
 4 Aphareus      furca          <NA>   <NA>       <NA>        
 5 Catostomus    catostomus     <NA>   <NA>       <NA>        
 6 Cephalopholis argus          <NA>   <NA>       <NA>        
 7 Chaetostoma   lineopunctatum <NA>   <NA>       <NA>        
 8 Centropomus   undecimalis    <NA>   <NA>       <NA>        
 9 Osteoglossum  bicirrhosum    <NA>   <NA>       <NA>        
10 Chanos        chanos         <NA>   <NA>       <NA>        
# … with 75 more rows
…
For species that have matches in the big tree (so that Tip is not NA), the “MatchSpecies” and “MatchGenus” are just the same as Genus and Species.

ourspecies <-
  ourspecies %>%
  mutate(MatchSpecies = if_else(!is.na(Tip), Species, MatchSpecies),
         MatchGenus = if_else(!is.na(Tip), Genus, MatchGenus))

Deal with species that do not match

For species that aren’t in the Betancur tree, we have to find the most appropriate other species. First, find species in our data set that are not in the Betancur tree.

missingspecies <- anti_join(ourspecies, allspecies, by=c("Genus", "Species"))
missingspecies

# A tibble: 29 × 7
   Genus          Species        MatchGenus MatchSpecies FullName   Tip Family  
   <chr>          <chr>          <chr>      <chr>        <chr>    <int> <chr>   
 1 Catostomus     catostomus     <NA>       <NA>         <NA>        NA <NA>    
 2 Chaetostoma    lineopunctatum <NA>       <NA>         <NA>        NA <NA>    
 3 Roeboides      affinis        <NA>       <NA>         <NA>        NA <NA>    
 4 Myripristis    jacobus        <NA>       <NA>         <NA>        NA <NA>    
 5 Mirorictus     taningi        Searsia    koefoedi     <NA>        NA Platytr…
 6 Ophidion       scrippsae      <NA>       <NA>         <NA>        NA <NA>    
 7 Oncorhynchus   gorbuscha      <NA>       <NA>         <NA>        NA <NA>    
 8 Coryphaenoides filifer        <NA>       <NA>         <NA>        NA <NA>    
 9 Anodontostoma  chacunda       Dorosoma   cepedianum   <NA>        NA Clupeid…
10 Apteronotus    cuchillejo     <NA>       <NA>         <NA>        NA <NA>    
# … with 19 more rows

Look for species in the Betancur tree in the same genera as the missing species:

left_join(missingspecies, allspecies, by=c("Genus")) %>%
  group_by(Genus, Species.x) %>%
  summarize(n = sum(!is.na(Species.y)))

`summarise()` has grouped output by 'Genus'. You can override using the `.groups` argument.

# A tibble: 29 × 3
# Groups:   Genus [27]
   Genus          Species.x          n
   <chr>          <chr>          <int>
 1 Abramis        brama              0
 2 Ammodytes      personatus         2
 3 Anodontostoma  chacunda           0
 4 Anoplarchus    insignis           0
 5 Anoplarchus    purpurescens       0
 6 Apodichthys    flavidus           0
 7 Apteronotus    cuchillejo         1
 8 Catostomus     catostomus         6
 9 Chaetostoma    lineopunctatum     1
10 Coryphaenoides filifer            4
# … with 19 more rows
…
matchspecies

# A tibble: 85 × 2
   Species                    MatchSpecies            
   <chr>                      <chr>                   
 1 Alectis_ciliaris           Alectis_ciliaris        
 2 Amia_calva                 Amia_calva              
 3 Anoplogaster_cornuta       Anoplogaster_cornuta    
 4 Aphareus_furca             Aphareus_furca          
 5 Catostomus_catostomus      Catostomus_plebius      
 6 Cephalopholis_argus        Cephalopholis_argus     
 7 Chaetostoma_lineopunctatum Chaetostoma_breve       
 8 Centropomus_undecimalis    Centropomus_undecimalis 
 9 Osteoglossum_bicirrhosum   Osteoglossum_bicirrhosum
10 Chanos_chanos              Chanos_chanos           
# … with 75 more rows
…
Rows: 585 Columns: 54

── Column specification ────────────────────────────────────────────────────────
Delimiter: ","
chr (16): Species, Family, Body Shape, Habitat_Initial, Habitat_Friedman, Ha...
dbl (38): Indiv, Pos, SL, CBL_raw, alpha_Pos_raw, d_raw, D_Pos_raw, alpha_An...

ℹ Use `spec()` to retrieve the full column specification for this data.
ℹ Specify the column types or set `show_col_types = FALSE` to quiet this message.

fullvertmeas

# A tibble: 585 × 55
   Species          MatchGenus MatchSpecies Family Indiv   Pos    SL CBL_raw
   <chr>            <chr>      <chr>        <chr>  <dbl> <dbl> <dbl>   <dbl>
 1 Alectis_ciliaris Alectis    ciliaris     <NA>       1    40   799    24.9
 2 Alectis_ciliaris Alectis    ciliaris     <NA>       1    50   799    34.4
 3 Alectis_ciliaris Alectis    ciliaris     <NA>       1    60   799    35.8
 4 Alectis_ciliaris Alectis    ciliaris     <NA>       1    70   799    36.6
 5 Alectis_ciliaris Alectis    ciliaris     <NA>       1    80   799    35.2
 6 Alectis_ciliaris Alectis    ciliaris     <NA>       1    90   799    32.8
 7 Amia_calva       Amia       calva        <NA>       1    30  1438    11.8
 8 Amia_calva       Amia       calva        <NA>       1    40  1438    31.8
 9 Amia_calva       Amia       calva        <NA>       1    50  1438    15.6
10 Amia_calva       Amia       calva        <NA>       1    60  1438    32.1
# … with 575 more rows, and 47 more variables: alpha_Pos_raw <dbl>,
#   d_raw <dbl>, D_Pos_raw <dbl>, alpha_Ant_raw <dbl>, D_Ant_raw <dbl>,
#   CBL <dbl>, alpha_Pos <dbl>, d <dbl>, D_Pos <dbl>, alpha_Ant <dbl>,
#   D_Ant <dbl>, Pt1x <dbl>, Pt1y <dbl>, Pt2x <dbl>, Pt2y <dbl>, Pt3x <dbl>,
#   Pt3y <dbl>, Pt4x <dbl>, Pt4y <dbl>, Pt5x <dbl>, Pt5y <dbl>, Pt6x <dbl>,
#   Pt6y <dbl>, Pt7x <dbl>, Pt7y <dbl>, Body Shape <chr>,
#   Habitat_Initial <chr>, Habitat_Friedman <chr>, Habitat_FishBase <chr>, …
…
