R Notebook
…
The double species name for Fundulus confuses things, so we’ll just
correct it manually.

vertdata_sum <-
  vertdata_sum |> 
  mutate(MatchSpecies = if_else(Species == 'Fundulus_heteroclitus',
                                'Fundulus_heteroclitus_heteroclitus',
                                MatchSpecies))

vertdata <- left_join(vertdata_sum, allspecies, 
                                  by=c("MatchSpecies"="Species")) %>%
  select(-(ends_with(".x") | ends_with(".y")))
vertdata

# A tibble: 82 × 46
   Species    Indiv Habitat Water…¹ Match…² allta…³ Order Family finen…⁴ CBL_med
   <chr>      <dbl> <chr>   <chr>   <chr>   <chr>   <chr> <chr>    <dbl>   <dbl>
 1 Abramis_b…     1 pelagic freshw… Alburn… Actino… Cypr… Cypri…    8.95 0.0166 
 2 Alectis_c…     1 pelagic marine  Alecti… Actino… Cara… Caran…    8.75 0.0346 
 3 Alosa_pse…     1 pelagic anadro… Alosa_… Actino… Clup… Clupe…    7.39 0.0165 
 4 Amia_calva     1 demers… freshw… Amia_c… Actino… Amii… Amiid…    6.72 0.00983
 5 Ammodytes…     1 demers… marine  Ammody… Actino… Uran… Ammod…   16.9  0.0132 
 6 Anodontos…     1 pelagic freshw… Doroso… Actino… Clup… Clupe…    4.66 0.0228 
 7 Anoplarch…     1 benthic marine  Anopla… Actino… Perc… Stich…    8.62 0.0195 
 8 Anoplarch…     1 demers… marine  Anopla… Actino… Perc… Stich…    9.51 0.0156 
 9 Anoplogas…     1 pelagic marine  Anoplo… Actino… Bery… Anopl…    5.04 0.0287 
10 Aphareus_…     1 pelagic marine  Aphare… Actino… Ince… Lutja…    5.01 0.0312 
# … with 72 more rows, 36 more variables: CBL_max <dbl>, CBL_mn <dbl>,
#   d_med <dbl>, d_max <dbl>, d_mn <dbl>, alphaAnt_med <dbl>,
#   alphaAnt_max <dbl>, alphaAnt_mn <dbl>, alphaPos_med <dbl>,
#   alphaPos_max <dbl>, alphaPos_mn <dbl>, DAnt_med <dbl>, DAnt_max <dbl>,
#   DAnt_mn <dbl>, DPos_med <dbl>, DPos_max <dbl>, DPos_mn <dbl>,
#   dBW_med <dbl>, dBW_max <dbl>, dBW_mn <dbl>, DAntBW_med <dbl>,
#   DAntBW_max <dbl>, DAntBW_mn <dbl>, DPosBW_med <dbl>, DPosBW_max <dbl>, …
…
