R Notebook
…
allspecies <- 
  allspecies %>% separate(FullName, sep='_', into=c('Family', 'Genus', 'Species'), 
                          extra='drop', remove=FALSE)

Set up the tip number (just the row)

allspecies$Tip <- seq_len(nrow(allspecies))

vertdata <- left_join(vertdata_sum, allspecies, 
                                  by=c("MatchGenus"="Genus", "MatchSpecies"="Species")) %>%
  select(-(ends_with(".x") | ends_with(".y")))
vertdata

# A tibble: 83 × 93
   Species   Habitat Water_Type MatchSpecies MatchGenus fineness CBL_med CBL_max
   <chr>     <chr>   <chr>      <chr>        <chr>         <dbl>   <dbl>   <dbl>
 1 Abramis_… pelagic freshwater alburnus     Alburnus       8.95 0.0166   0.0177
 2 Alectis_… demers… marine     ciliaris     Alectis        8.75 0.0346   0.0357
 3 Alosa_ps… pelagic anadromous pseudoharen… Alosa          7.39 0.0165   0.0173
 4 Amia_cal… demers… freshwater calva        Amia           6.72 0.00983  0.0113
 5 Ammodyte… benthic marine     dubius       Ammodytes     16.9  0.0132   0.0141
 6 Anodonto… pelagic freshwater cepedianum   Dorosoma       4.66 0.0228   0.0238
 7 Anoplarc… benthic marine     <NA>         <NA>           8.62 0.0195   0.0212
 8 Anoplarc… benthic marine     <NA>         <NA>           9.51 0.0156   0.0176
 9 Anoploga… pelagic marine     cornuta      Anoplogas…     5.04 0.0287   0.0329
10 Aphareus… pelagic marine     furca        Aphareus       5.01 0.0312   0.0334
# … with 73 more rows, and 85 more variables: CBL_mn <dbl>, d_med <dbl>,
#   d_max <dbl>, d_mn <dbl>, alphaAnt_med <dbl>, alphaAnt_max <dbl>,
#   alphaAnt_mn <dbl>, alphaPos_med <dbl>, alphaPos_max <dbl>,
#   alphaPos_mn <dbl>, DAnt_med <dbl>, DAnt_max <dbl>, DAnt_mn <dbl>,
#   DPos_med <dbl>, DPos_max <dbl>, DPos_mn <dbl>, dBW_med <dbl>,
#   dBW_max <dbl>, dBW_mn <dbl>, DAntBW_med <dbl>, DAntBW_max <dbl>,
#   DAntBW_mn <dbl>, DPosBW_med <dbl>, DPosBW_max <dbl>, DPosBW_mn <dbl>, …
…
