PGLS analysis on vertebrae
…
effectsizes

# A tibble: 21 × 6
     eff       p var      group2   group1   Habitat 
   <dbl>   <dbl> <chr>    <chr>    <chr>    <chr>   
 1 2.44  0.0110  CBL      benthic  pelagic  pelagic 
 2 0.636 0.287   CBL      benthic  demersal demersal
 3 0.254 0.416   CBL      demersal pelagic  pelagic 
 4 3.10  0.00100 d        benthic  pelagic  pelagic 
 5 1.11  0.135   d        benthic  demersal demersal
 6 1.13  0.144   d        demersal pelagic  pelagic 
 7 0.974 0.181   alphaAnt benthic  pelagic  pelagic 
 8 0.359 0.386   alphaAnt benthic  demersal demersal
 9 1.07  0.153   alphaAnt demersal pelagic  pelagic 
10 2.36  0.00500 alphaPos benthic  pelagic  pelagic 
# … with 11 more rows
…
