Vert Pairs
…
pairslong

# A tibble: 92 × 8
   Habitat  parent branch.length diffhab compare var         value change  
   <chr>    <fct>          <dbl> <lgl>   <chr>   <chr>       <dbl> <fct>   
 1 pelagic  84              54.2 FALSE   p-p     alphaPos_mn  91.5 decrease
 2 pelagic  84              54.2 FALSE   p-p     alphaPos_mn  85.5 decrease
 3 benthic  90              47.5 TRUE    b-d     alphaPos_mn  67.8 decrease
 4 demersal 90              47.5 TRUE    b-d     alphaPos_mn  52.2 decrease
 5 demersal 94              82.5 FALSE   d-d     alphaPos_mn  67.2 increase
 6 demersal 94              82.5 FALSE   d-d     alphaPos_mn  72.8 increase
 7 demersal 96             126.  FALSE   d-d     alphaPos_mn  73.8 increase
 8 demersal 96             126.  FALSE   d-d     alphaPos_mn  88.1 increase
 9 demersal 99             104.  FALSE   d-d     alphaPos_mn  68.2 increase
10 demersal 99             104.  FALSE   d-d     alphaPos_mn 112.  increase
# … with 82 more rows
…
branch_len_trans <- function() 
  scales::trans_new('branch_len',
                    function(x) 400/x,
                    function(x) 400/x,
                    domain = c(0, Inf))

Plot the pairs

paircolors <- c('#1b9e77','#d95f02','#7570b3')

pairslong %>%
  filter(diffhab, var == "d_mn")

# A tibble: 26 × 8
   Habitat  parent branch.length diffhab compare var      value change  
   <chr>    <fct>          <dbl> <lgl>   <chr>   <chr>    <dbl> <fct>   
 1 benthic  90              47.5 TRUE    b-d     d_mn  0.00117  same    
 2 demersal 90              47.5 TRUE    b-d     d_mn  0.0012   same    
 3 demersal 101            129.  TRUE    d-p     d_mn  0.00473  decrease
 4 pelagic  101            129.  TRUE    d-p     d_mn  0.00292  decrease
 5 benthic  105             41.5 TRUE    b-d     d_mn  0.00187  same    
 6 demersal 105             41.5 TRUE    b-d     d_mn  0.00182  same    
 7 benthic  127             59.2 TRUE    b-p     d_mn  0.00278  decrease
 8 pelagic  127             59.2 TRUE    b-p     d_mn  0.000317 decrease
 9 demersal 128             29.1 TRUE    d-p     d_mn  0.00218  decrease
10 pelagic  128             29.1 TRUE    d-p     d_mn  0.00075  decrease
# … with 16 more rows
…
